{
    "KPackageStructure": "KWin/Script",
    "KPlugin": {
        "Authors": [
            {
                "Email": "mgraesslin@kde.org",
                "Name": "Martin Gräßlin",
                "Name[ar]": "مارتن جراجلين",
                "Name[bg]": "Martin Gräßlin",
                "Name[ca@valencia]": "Martin Gräßlin",
                "Name[ca]": "Martin Gräßlin",
                "Name[es]": "Martin Gräßlin",
                "Name[et]": "Martin Gräßlin",
                "Name[eu]": "Martin Gräßlin",
                "Name[fr]": "Martin Gräßlin",
                "Name[it]": "Martin Gräßlin",
                "Name[ka]": "მარტინ გრესსლინი",
                "Name[nl]": "Martin Gräßlin",
                "Name[pt]": "Martin Gräßlin",
                "Name[sl]": "Martin Gräßlin",
                "Name[ta]": "மார்ட்டின் கிராஸ்லின்",
                "Name[tr]": "Martin Gräßlin",
                "Name[uk]": "Martin Gräßlin",
                "Name[vi]": "Martin Gräßlin",
                "Name[x-test]": "xxMartin Gräßlinxx"
            }
        ],
        "Description": "Hides all windows marked as Skip Taskbar to be also excluded from window switchers (e.g. Alt+Tab)",
        "Description[ar]": "يخفي جميع النوافذ المعلّمة على أنها \"تخطَ شريط المهام\"  من مبدلات النوافذ (مثل Alt + Tab)",
        "Description[bg]": "Скрива всички прозорци, с включено  \"Пропускане на лентата на задачите\", за да не се превключват  (напр. с Alt+Tab)",
        "Description[ca@valencia]": "Oculta totes les finestres marcades com a «Ignora la barra de tasques» que també s'excloguen del commutador de finestres (p. ex. Alt+Tab)",
        "Description[ca]": "Oculta totes les finestres marcades com a «Ignora la barra de tasques» que també s'excloguin del commutador de finestres (p. ex. Alt+Tab)",
        "Description[es]": "Oculta todas las ventanas marcadas como «Omitir barra de tareas» para que también se excluyan de los selectores de ventanas (por ejemplo, Alt+Tab)",
        "Description[et]": "Kõigi tegumiribalt väljajäetavaks märgitud akende peitmine, et neid ei kaasataks ka aknavahetajatesse (nt Alt+Tab)",
        "Description[eu]": "'Saltatu ataza-barra' gisa markatuta dauden leiho guztiak ezkutatzen ditu leiho-kommutadoretik kanpo ere uzteko (adib., Alt+Tab)",
        "Description[fr]": "Masque toutes les fenêtres marquées « Ignorer la barre de tâches » pour être également exclues des commutateurs de fenêtres (par ex. « ALT » + « Tab »)",
        "Description[ia]": "Cela omne fenestras marcate como barra de cargas de salto pro anque esser excludite ex commutatores de fenestra (p.ex.Alt+Tab)",
        "Description[it]": "Nasconde tutte le finestre marcate come Salta barra delle applicazioni che sono escluse anche dal selettore delle finestre (es. Alt+Tab)",
        "Description[nl]": "Verbergt alle vensters gemarkeerd als Taakbalkoverslaan om ook te worden uitgesloten van vensterschakelaars (bijv. Alt+Tab)",
        "Description[pt]": "Esconde todas as janelas marcadas como Ignorar a Barra de Tarefas para estarem também excluídas dos selectores de janelas (p.ex., Alt+Tab)",
        "Description[sl]": "Skrije vsa okna, označena kot Preskoči opravilno vrstico, da bi bila izključena tudi iz preklopnikov oken (npr. izmenjalka+tabulatorka)",
        "Description[ta]": "பணிப்பட்டையில் காட்டப்படாதவாறு அமைக்கப்பட்டுள்ள சாளரங்களை, சாளரங்களுக்கிடையே தாவும்போதும் (எ.கா. Alt+Tab மூலமாக) தவிர்க்கும்",
        "Description[tr]": "Görev Çubuğunu Atla olarak imlenen tüm pencerelerin, değiştiricilerden de (örn. Alt+Tab) saklanmasını sağlar",
        "Description[uk]": "Приховує всі вікна, позначені як такі, що не показуються на панелі задач, так, щоб їх не було показано у списках перемикання вікон (наприклад Alt+Tab)",
        "Description[vi]": "Ẩn tất cả các cửa sổ được đánh dấu là \"Bỏ qua thanh tác vụ\" khỏi các trình chuyển cửa sổ (vd.: Alt+Tab)",
        "Description[x-test]": "xxHides all windows marked as Skip Taskbar to be also excluded from window switchers (e.g. Alt+Tab)xx",
        "Icon": "preferences-system-windows-script-synchronizeskipswitcher",
        "Id": "synchronizeskipswitcher",
        "License": "GPL",
        "Name": "Synchronize Skip Switcher with Taskbar",
        "Name[ar]": "زامن بين مبدل التخطي و شريط المهام",
        "Name[bg]": "Синхронизиране на пропускане на лентата на задачите с диспечера на задачи",
        "Name[ca@valencia]": "Sincronitza «Ignora el commutador» amb la barra de tasques",
        "Name[ca]": "Sincronitza «Ignora el commutador» amb la barra de tasques",
        "Name[es]": "Sincronizar «Omitir selector» con la barra de tareas",
        "Name[et]": "Vahelejätmise lülitaja sünkroonimine tegumiribaga",
        "Name[eu]": "Ataza-barrarekin kommutadorea saihestu sinkronizatzea",
        "Name[fr]": "Synchroniser le commutateur de saut avec la barre des tâches",
        "Name[ia]": "Synchronisa Commutator de salto con Barra de carga",
        "Name[it]": "Sincronizza selettore di salto con la barra delle applicazioni",
        "Name[nl]": "Overslaanschakelaar met taakbalk synchroniseren",
        "Name[pt]": "Sincronizar a Mudança com a Barra de Tarefas",
        "Name[sl]": "Uskladi preklopnik preskoka z opravilno vrstico",
        "Name[ta]": "மாற்றியையும் பணிப்பட்டையையும் ஒத்திசைய செய்",
        "Name[tr]": "Değiştiricide Gösterilmeyenleri Çubukta da Gösterme",
        "Name[uk]": "Синхронізувати виключення вікон у перемикачі з панеллю задач",
        "Name[vi]": "Đồng bộ hoá việc bỏ qua trình chuyển với thanh tác vụ",
        "Name[x-test]": "xxSynchronize Skip Switcher with Taskbarxx",
        "Version": "1.0"
    },
    "X-Plasma-API": "javascript",
    "X-Plasma-MainScript": "code/main.js"
}
