{
    "KPackageStructure": "KWin/Effect",
    "KPlugin": {
        "Authors": [
            {
                "Email": "vlad.zahorodnii@kde.org",
                "Name": "Vlad Zahorodnii",
                "Name[ar]": "فلاد زاهورودني",
                "Name[az]": "Vlad Zahorodnii",
                "Name[bg]": "Vlad Zahorodnii",
                "Name[ca@valencia]": "Vlad Zahorodnii",
                "Name[ca]": "Vlad Zahorodnii",
                "Name[cs]": "Vlad Zahorodnii",
                "Name[de]": "Vlad Zahorodnii",
                "Name[en_GB]": "Vlad Zahorodnii",
                "Name[es]": "Vlad Zahorodnii",
                "Name[et]": "Vlad Zahorodnii",
                "Name[eu]": "Vlad Zahorodnii",
                "Name[fi]": "Vlad Zahorodnii",
                "Name[fr]": "Vlad Zahorodnii",
                "Name[hu]": "Vlad Zahorodnii",
                "Name[ia]": "Vlad Zahorodnii",
                "Name[id]": "Vlad Zahorodnii",
                "Name[it]": "Vlad Zahorodnii",
                "Name[ja]": "Vlad Zahorodnii",
                "Name[ka]": "Vlad Zahorodnii",
                "Name[ko]": "Vlad Zahorodnii",
                "Name[lt]": "Vlad Zahorodnii",
                "Name[nl]": "Vlad Zahorodnii",
                "Name[nn]": "Vlad Zahorodnii",
                "Name[pl]": "Vlad Zahorodnii",
                "Name[pt]": "Vlad Zahorodnii",
                "Name[pt_BR]": "Vlad Zahorodnii",
                "Name[ro]": "Vlad Zahorodnii",
                "Name[ru]": "Влад Загородний",
                "Name[sk]": "Vlad Zahorodnii",
                "Name[sl]": "Vlad Zahorodnii",
                "Name[sv]": "Vlad Zahorodnii",
                "Name[ta]": "விலாட் ஜாஹொரிடுனி",
                "Name[tr]": "Vlad Zahorodnii",
                "Name[uk]": "Влад Загородній",
                "Name[vi]": "Vlad Zahorodnii",
                "Name[x-test]": "xxVlad Zahorodniixx",
                "Name[zh_CN]": "Vlad Zahorodnii",
                "Name[zh_TW]": "Vlad Zahorodnii"
            }
        ],
        "Category": "Appearance",
        "Description": "Make popups smoothly fade in and out when they are shown or hidden",
        "Description[ar]": "اجعل النوافذ المنبثقة تظهر وتتلاشى بنعومة عند إظهاراها وإخفائها",
        "Description[bg]": "Постепенно избледняване при показване и скриване на изскачащите прозорци",
        "Description[ca@valencia]": "Fa que els missatges emergents s'encengen o s'apaguen de manera gradual quan es mostren o s'oculten",
        "Description[ca]": "Fa que els missatges emergents s'encenguin o s'apaguin de manera gradual quan es mostren o s'oculten",
        "Description[es]": "Hacer que las ventanas emergentes se desvanezcan y reaparezcan suavemente al mostrarlas y al ocultarlas",
        "Description[et]": "Paneb hüpikaknad sujuvalt hääbuma või tugevnema, kui need peidetakse või nähtavale tuuakse",
        "Description[eu]": "Gainerakorrak emeki koloregabetu/koloretu haiek erakustean edo ezkutatzean",
        "Description[fr]": "Faire un fondu enchaîné avant ou arrière des infobulles lorsqu’elles sont affichées ou masquées",
        "Description[ia]": "Face que fenestras pote dulcemente pallidir intra e foras quando illos es monstrate o celate",
        "Description[it]": "Fai dissolvere e comparire gradualmente le finestre a comparsa quando vengono mostrate o nascoste",
        "Description[nl]": "Laat pop-ups vloeiend opkomen/vervagen als ze worden weergegeven of verborgen",
        "Description[pt]": "Faz com que as janelas modais apareçam e desapareçam suavemente quando são apresentadas ou escondidas",
        "Description[sl]": "Modalna okna naj se gladko odtemnijo oz. zatemnijo, kadar se prikažejo ali skrijejo",
        "Description[ta]": "தெரித்தெழும் சாளரங்கள் காட்டப்படும்போது படிப்படியாக ஒளிகூடி மறைக்கப்படும்போது மங்கி செல்லும்",
        "Description[tr]": "Açılır pencereler gösterilirken veya gizlenirken pürüzsüzce geçiş yapmalarını sağlar",
        "Description[uk]": "Поступова поява або зникнення контекстних вікон вікон при відкритті чи закритті",
        "Description[vi]": "Làm ô bật lên hiện dần và mờ dần một cách êm dịu khi chúng hiện ra và biến mất",
        "Description[x-test]": "xxMake popups smoothly fade in and out when they are shown or hiddenxx",
        "EnabledByDefault": true,
        "Icon": "preferences-system-windows-effect-fadingpopups",
        "Id": "kwin4_effect_fadingpopups",
        "License": "GPL",
        "Name": "Fading Popups",
        "Name[ar]": "تتلاشى النوافذ المنبثقة",
        "Name[bg]": "Избледняващи  изскачащи прозорци",
        "Name[ca@valencia]": "Missatges emergents esvaïts",
        "Name[ca]": "Missatges emergents esvaïts",
        "Name[es]": "Desvanecer ventanas emergentes",
        "Name[et]": "Hääbuvad hüpikdialoogid",
        "Name[eu]": "Itzaleztatzen diren gainerakorrak",
        "Name[fr]": "Atténuation des infobulles",
        "Name[ia]": "Popups dissolvente",
        "Name[it]": "Finestre a comparsa che si dissolvono",
        "Name[ka]": "მინავლებადი მხტუნარები",
        "Name[nl]": "Vervagende pop-ups",
        "Name[pt]": "Janelas a Desvanecer",
        "Name[sl]": "Prelivni pojavni gradniki",
        "Name[ta]": "தெரித்தெழும் சாளரங்கள் மங்கும்",
        "Name[tr]": "Solan Açılır Pencereler",
        "Name[uk]": "Інтерактивні контекстні панелі",
        "Name[vi]": "Ô bật lên ngả màu",
        "Name[x-test]": "xxFading Popupsxx",
        "Version": "1.0"
    },
    "X-KDE-Ordering": "60",
    "X-Plasma-API": "javascript",
    "X-Plasma-MainScript": "code/main.js"
}
