{
    "KPlugin": {
        "Category": "Focus",
        "Description": "Darken inactive windows",
        "Description[ar]": "أعتِم النوافذ غير النشطة",
        "Description[az]": "Qeyri-aktiv pəncərələri tutqunlaşdırır",
        "Description[bg]": "Затъмняване на неактивните прозорци",
        "Description[ca@valencia]": "Enfosquix les finestres inactives",
        "Description[ca]": "Enfosqueix les finestres inactives",
        "Description[cs]": "Ztmavit neaktivní okna",
        "Description[de]": "Dunkelt inaktive Fenster ab",
        "Description[en_GB]": "Darken inactive windows",
        "Description[es]": "Oscurece las ventanas inactivas",
        "Description[et]": "Tumendab mitteaktiivsed aknad",
        "Description[eu]": "Leiho ez-aktiboak iluntzea",
        "Description[fi]": "Tummenna passiivisia ikkunoita",
        "Description[fr]": "Assombrir les fenêtres inactives",
        "Description[hu]": "Elsötétíti az inaktív ablakokat",
        "Description[ia]": "Fenestras inactive obscurate",
        "Description[id]": "Menggelapkan jendela yang tidak aktif",
        "Description[it]": "Scurisci le finestre inattive",
        "Description[ja]": "非アクティブなウィンドウを暗くします",
        "Description[ka]": "არააქტიური ფანჯრების ჩაბნელება",
        "Description[ko]": "비활성 창을 어둡게 합니다",
        "Description[nl]": "Maakt inactieve vensters donkerder",
        "Description[nn]": "Gjer inaktive vindauge mørkare",
        "Description[pl]": "Przyciemnia nieaktywne okna",
        "Description[pt]": "Escurecer as janelas inactivas",
        "Description[pt_BR]": "Escurece as janelas inativas",
        "Description[ro]": "Întunecă ferestrele inactive",
        "Description[ru]": "Затемнение неактивных окон",
        "Description[sk]": "Stmaví neaktívne okná",
        "Description[sl]": "Potemni nedejavna okna",
        "Description[sv]": "Gör inaktiva fönster mörkare",
        "Description[ta]": "செயலிலில்லாத சாளரங்களின் பிரகாசத்தை குறைக்கும்",
        "Description[tr]": "Etkin olmayan pencereleri koyulaştır",
        "Description[uk]": "Затемнення неактивних вікон",
        "Description[vi]": "Làm tối các cửa sổ bất hoạt",
        "Description[x-test]": "xxDarken inactive windowsxx",
        "Description[zh_CN]": "非活动的窗口将会变暗",
        "Description[zh_TW]": "將非作用中視窗變暗",
        "EnabledByDefault": false,
        "Id": "diminactive",
        "License": "GPL",
        "Name": "Dim Inactive",
        "Name[ar]": "تعتيم الخامل",
        "Name[az]": "Qeyri-aktivi qaraldın",
        "Name[bg]": "Затъмняване на неактивни прозорци",
        "Name[ca@valencia]": "Enfosquix les inactives",
        "Name[ca]": "Enfosqueix les inactives",
        "Name[cs]": "Ztmavit neaktivní",
        "Name[de]": "Inaktive abdunkeln",
        "Name[en_GB]": "Dim Inactive",
        "Name[es]": "Oscurecer inactivas",
        "Name[et]": "Tuhm mitteaktiivne",
        "Name[eu]": "Ahuldu ez-aktiboa",
        "Name[fi]": "Passiivisen himmennys",
        "Name[fr]": "Réglage inactif",
        "Name[hu]": "Inaktív ablakok kiszürkítése",
        "Name[ia]": "Dim Inactive",
        "Name[id]": "Dim Inactive",
        "Name[it]": "Scurisci le inattive",
        "Name[ja]": "非アクティブなウィンドウを暗くする",
        "Name[ka]": "არააქტიურის ჩაბნელება",
        "Name[ko]": "비활성 창 어둡게",
        "Name[nl]": "Inactief dimmen",
        "Name[nn]": "Mørklegg inaktive vindauge",
        "Name[pl]": "Przyciemnienie nieaktywnych",
        "Name[pt]": "Escurecer as Inactivas",
        "Name[pt_BR]": "Escurecer inativas",
        "Name[ro]": "Împăienjenire inactive",
        "Name[ru]": "Затемнение неактивных окон",
        "Name[sk]": "Stmaviť neaktívne",
        "Name[sl]": "Zatemni nedejavne",
        "Name[sv]": "Dämpa inaktiva",
        "Name[ta]": "செயலிலில்லாதவற்றின் பிரகாசத்தை குறை",
        "Name[tr]": "Etkin Olmayanları Karart",
        "Name[uk]": "Затемнення неактивних",
        "Name[vi]": "Làm tối bất hoạt",
        "Name[x-test]": "xxDim Inactivexx",
        "Name[zh_CN]": "非活动窗口变暗",
        "Name[zh_TW]": "暗化非作用"
    },
    "X-KDE-ConfigModule": "kwin_diminactive_config",
    "org.kde.kwin.effect": {
        "video": "https://files.kde.org/plasma/kwin/effect-videos/dim_inactive.mp4"
    }
}
